<svg xmlns="http://www.w3.org/2000/svg" width="45" height="45" viewBox="0 0 45 45">
  <g id="Group_13" data-name="Group 13" transform="translate(-2997 321)">
    <g id="Group_10" data-name="Group 10" transform="translate(2914.006 -352.997)">
      <path id="Path_20" data-name="Path 20" d="M113.587,34.211a.726.726,0,0,0-.533-.213H90.694a.684.684,0,0,0-.7.711v39.6a.684.684,0,0,0,.7.711H119.97a.684.684,0,0,0,.7-.711v-32.4a.7.7,0,0,0-.186-.505Zm.245,2.334,4.4,4.659h-4.4Zm-22.36,37V35.476h20.881v6.429a.741.741,0,0,0,.7.778h6.137v30.86Z" fill="#fff"/>
      <path id="Path_21" data-name="Path 21" d="M161.668,185.873H142.587a.739.739,0,0,0,0,1.478h19.081a.739.739,0,0,0,0-1.478Zm-19.82-3.234a.739.739,0,0,0,.739.739h11.054a.739.739,0,1,0,0-1.478H142.587A.739.739,0,0,0,141.848,182.639Zm19.509-4.222v-7.941a.739.739,0,0,0-1.478,0v7.941a.739.739,0,1,0,1.478,0Zm-4.158,0v-2.771a.739.739,0,1,0-1.478,0v2.771a.739.739,0,1,0,1.478,0Zm-4.065,0V173.7a.739.739,0,1,0-1.478,0v4.72a.739.739,0,1,0,1.478,0Zm-4.065,0v-1.351a.739.739,0,0,0-1.478,0v1.351a.739.739,0,1,0,1.478,0Zm-4.158,0v-3.068a.739.739,0,0,0-1.478,0v3.068a.739.739,0,1,0,1.478,0Zm15.621-14.546a2.286,2.286,0,0,0-2.216,2.847l-1.179.646a2.285,2.285,0,0,0-4.049.776l-1.748-.178a2.285,2.285,0,0,0-4.073.955l-1.376,1.129a2.284,2.284,0,1,0,.654,1.6c0-.072,0-.143-.01-.214l1.054-.865a2.284,2.284,0,0,0,4.2-1.072l1.411.143a2.285,2.285,0,0,0,4.377-.832l1.546-.846a2.285,2.285,0,1,0,1.4-4.088Zm-16.273,8.582a.808.808,0,1,1,.808-.808A.808.808,0,0,1,144.259,172.453Zm5.255-2.31a.808.808,0,1,1,.808-.808.808.808,0,0,1-.808.808Zm5.785-.615a.808.808,0,1,1,.808-.808.808.808,0,0,1-.808.808Zm5.234-2.564a.808.808,0,1,1,.808-.808.808.808,0,0,1-.808.808Z" transform="translate(-47.063 -117.874)" fill="#fff"/>
    </g>
    <g id="Group_12" data-name="Group 12" transform="translate(-43 -52)">
      <rect id="Rectangle_146" data-name="Rectangle 146" width="45" height="45" transform="translate(3040 -269)" fill="none"/>
    </g>
  </g>
</svg>
